^C:\USERS\NGUYEN HO QUOC THINH\DOCUMENTS\CODE EXERCISES\TESTING\DLL\1512544.PAINT\MYPAINT1.0\MYPAINTDLL\STDAFX.CPP
C:\USERS\NGUYEN HO QUOC THINH\DOCUMENTS\CODE EXERCISES\TESTING\DLL\1512544.PAINT\MYPAINT1.0\MYPAINTDLL\X64\DEBUG\MYPAINTDLL.PCH
C:\USERS\NGUYEN HO QUOC THINH\DOCUMENTS\CODE EXERCISES\TESTING\DLL\1512544.PAINT\MYPAINT1.0\MYPAINTDLL\X64\DEBUG\VC140.PDB
C:\USERS\NGUYEN HO QUOC THINH\DOCUMENTS\CODE EXERCISES\TESTING\DLL\1512544.PAINT\MYPAINT1.0\MYPAINTDLL\X64\DEBUG\VC140.IDB
C:\USERS\NGUYEN HO QUOC THINH\DOCUMENTS\CODE EXERCISES\TESTING\DLL\1512544.PAINT\MYPAINT1.0\MYPAINTDLL\X64\DEBUG\STDAFX.OBJ
^C:\USERS\NGUYEN HO QUOC THINH\DOCUMENTS\CODE EXERCISES\TESTING\DLL\1512544.PAINT\MYPAINT1.0\MYPAINTDLL\DLLMAIN.CPP
C:\USERS\NGUYEN HO QUOC THINH\DOCUMENTS\CODE EXERCISES\TESTING\DLL\1512544.PAINT\MYPAINT1.0\MYPAINTDLL\X64\DEBUG\VC140.PDB
C:\USERS\NGUYEN HO QUOC THINH\DOCUMENTS\CODE EXERCISES\TESTING\DLL\1512544.PAINT\MYPAINT1.0\MYPAINTDLL\X64\DEBUG\VC140.IDB
C:\USERS\NGUYEN HO QUOC THINH\DOCUMENTS\CODE EXERCISES\TESTING\DLL\1512544.PAINT\MYPAINT1.0\MYPAINTDLL\X64\DEBUG\DLLMAIN.OBJ
^C:\USERS\NGUYEN HO QUOC THINH\DOCUMENTS\CODE EXERCISES\TESTING\DLL\1512544.PAINT\MYPAINT1.0\MYPAINTDLL\MYPAINTDLL.CPP|C:\USERS\NGUYEN HO QUOC THINH\DOCUMENTS\CODE EXERCISES\TESTING\DLL\1512544.PAINT\MYPAINT1.0\MYPAINTDLL\PAINTDLL.CPP
C:\USERS\NGUYEN HO QUOC THINH\DOCUMENTS\CODE EXERCISES\TESTING\DLL\1512544.PAINT\MYPAINT1.0\MYPAINTDLL\X64\DEBUG\VC140.PDB
C:\USERS\NGUYEN HO QUOC THINH\DOCUMENTS\CODE EXERCISES\TESTING\DLL\1512544.PAINT\MYPAINT1.0\MYPAINTDLL\X64\DEBUG\VC140.IDB
C:\USERS\NGUYEN HO QUOC THINH\DOCUMENTS\CODE EXERCISES\TESTING\DLL\1512544.PAINT\MYPAINT1.0\MYPAINTDLL\X64\DEBUG\MYPAINTDLL.OBJ
C:\USERS\NGUYEN HO QUOC THINH\DOCUMENTS\CODE EXERCISES\TESTING\DLL\1512544.PAINT\MYPAINT1.0\MYPAINTDLL\X64\DEBUG\PAINTDLL.OBJ
^C:\USERS\NGUYEN HO QUOC THINH\DOCUMENTS\CODE EXERCISES\TESTING\DLL\1512544.PAINT\MYPAINT1.0\MYPAINTDLL\MYPAINTDLL.CPP
C:\USERS\NGUYEN HO QUOC THINH\DOCUMENTS\CODE EXERCISES\TESTING\DLL\1512544.PAINT\MYPAINT1.0\MYPAINTDLL\X64\DEBUG\VC140.PDB
^C:\USERS\NGUYEN HO QUOC THINH\DOCUMENTS\CODE EXERCISES\TESTING\DLL\1512544.PAINT\MYPAINT1.0\MYPAINTDLL\PAINTDLL.CPP
C:\USERS\NGUYEN HO QUOC THINH\DOCUMENTS\CODE EXERCISES\TESTING\DLL\1512544.PAINT\MYPAINT1.0\MYPAINTDLL\X64\DEBUG\VC140.PDB
C:\USERS\NGUYEN HO QUOC THINH\DOCUMENTS\CODE EXERCISES\TESTING\DLL\1512544.PAINT\MYPAINT1.0\MYPAINTDLL\X64\DEBUG\VC140.IDB
C:\USERS\NGUYEN HO QUOC THINH\DOCUMENTS\CODE EXERCISES\TESTING\DLL\1512544.PAINT\MYPAINT1.0\MYPAINTDLL\X64\DEBUG\PAINTDLL.OBJ
^C:\USERS\NGUYEN HO QUOC THINH\DOCUMENTS\CODE EXERCISES\LTWIN\1512544.PAINTDLL\MYPAINT1.0\MYPAINTDLL\STDAFX.CPP
C:\USERS\NGUYEN HO QUOC THINH\DOCUMENTS\CODE EXERCISES\LTWIN\1512544.PAINTDLL\MYPAINT1.0\MYPAINTDLL\X64\DEBUG\MYPAINTDLL.PCH
C:\USERS\NGUYEN HO QUOC THINH\DOCUMENTS\CODE EXERCISES\LTWIN\1512544.PAINTDLL\MYPAINT1.0\MYPAINTDLL\X64\DEBUG\VC140.PDB
C:\USERS\NGUYEN HO QUOC THINH\DOCUMENTS\CODE EXERCISES\LTWIN\1512544.PAINTDLL\MYPAINT1.0\MYPAINTDLL\X64\DEBUG\VC140.IDB
C:\USERS\NGUYEN HO QUOC THINH\DOCUMENTS\CODE EXERCISES\LTWIN\1512544.PAINTDLL\MYPAINT1.0\MYPAINTDLL\X64\DEBUG\STDAFX.OBJ
^C:\USERS\NGUYEN HO QUOC THINH\DOCUMENTS\CODE EXERCISES\LTWIN\1512544.PAINTDLL\MYPAINT1.0\MYPAINTDLL\DLLMAIN.CPP
C:\USERS\NGUYEN HO QUOC THINH\DOCUMENTS\CODE EXERCISES\LTWIN\1512544.PAINTDLL\MYPAINT1.0\MYPAINTDLL\X64\DEBUG\VC140.PDB
C:\USERS\NGUYEN HO QUOC THINH\DOCUMENTS\CODE EXERCISES\LTWIN\1512544.PAINTDLL\MYPAINT1.0\MYPAINTDLL\X64\DEBUG\VC140.IDB
C:\USERS\NGUYEN HO QUOC THINH\DOCUMENTS\CODE EXERCISES\LTWIN\1512544.PAINTDLL\MYPAINT1.0\MYPAINTDLL\X64\DEBUG\DLLMAIN.OBJ
^C:\USERS\NGUYEN HO QUOC THINH\DOCUMENTS\CODE EXERCISES\LTWIN\1512544.PAINTDLL\MYPAINT1.0\MYPAINTDLL\MYPAINTDLL.CPP|C:\USERS\NGUYEN HO QUOC THINH\DOCUMENTS\CODE EXERCISES\LTWIN\1512544.PAINTDLL\MYPAINT1.0\MYPAINTDLL\PAINTDLL.CPP
C:\USERS\NGUYEN HO QUOC THINH\DOCUMENTS\CODE EXERCISES\LTWIN\1512544.PAINTDLL\MYPAINT1.0\MYPAINTDLL\X64\DEBUG\VC140.PDB
C:\USERS\NGUYEN HO QUOC THINH\DOCUMENTS\CODE EXERCISES\LTWIN\1512544.PAINTDLL\MYPAINT1.0\MYPAINTDLL\X64\DEBUG\VC140.IDB
C:\USERS\NGUYEN HO QUOC THINH\DOCUMENTS\CODE EXERCISES\LTWIN\1512544.PAINTDLL\MYPAINT1.0\MYPAINTDLL\X64\DEBUG\MYPAINTDLL.OBJ
C:\USERS\NGUYEN HO QUOC THINH\DOCUMENTS\CODE EXERCISES\LTWIN\1512544.PAINTDLL\MYPAINT1.0\MYPAINTDLL\X64\DEBUG\PAINTDLL.OBJ
^C:\USERS\NGUYEN HO QUOC THINH\DOCUMENTS\CODE EXERCISES\LTWIN\1512544.PAINTDLL\MYPAINT1.0\MYPAINTDLL\MYPAINTDLL.CPP
C:\USERS\NGUYEN HO QUOC THINH\DOCUMENTS\CODE EXERCISES\LTWIN\1512544.PAINTDLL\MYPAINT1.0\MYPAINTDLL\X64\DEBUG\VC140.PDB
^C:\USERS\NGUYEN HO QUOC THINH\DOCUMENTS\CODE EXERCISES\LTWIN\1512544.PAINTDLL\MYPAINT1.0\MYPAINTDLL\PAINTDLL.CPP
C:\USERS\NGUYEN HO QUOC THINH\DOCUMENTS\CODE EXERCISES\LTWIN\1512544.PAINTDLL\MYPAINT1.0\MYPAINTDLL\X64\DEBUG\VC140.PDB
